Example workflow of input and output to the Seatrack database
…
So, the import of this data should result in 77 active sessions (since we here start with an empty database). Next, we import the logger startup data.

writeLoggerImport(sampleLoggerImport)
#> Warning in result_create(conn@ptr, statement): Closing open result set,
#> cancelling previous query
#> [1] TRUE

We can use some convenience functions to checkout some of the newly imported data. The getLoggerInfo function reads from the loggers.logger_info table, which stores basic information of each registered logger (in use or not).

loggerInfo <- getLoggerInfo()  # This reads from the loggers.logger_info table
loggerInfo
#> # A tibble: 77 x 7
#>    id     logger_id logger_serial_no logger_model producer production_year
#>    <chr>      <int> <chr>            <chr>        <chr>              <int>
#>  1 2bf32…         1 Z231             c65          Migrate…            2013
#>  2 2bf4a…         2 Z236             c65          Migrate…            2013
#>  3 2bf52…         3 Z234             c65          Migrate…            2013
#>  4 2bf5b…         4 Z232             c65          Migrate…            2013
#>  5 2bf64…         5 Y604             f100         Migrate…            2013
#>  6 2bf6b…         6 Y612             f100         Migrate…            2013
#>  7 2bf71…         7 Y614             f100         Migrate…            2013
#>  8 2bf74…         8 Y595             f100         Migrate…            2013
#>  9 2bf76…         9 Y116             c330         Migrate…            2013
#> 10 2bf78…        10 Y099             c330         Migrate…            2013
#> # ... with 67 more rows, and 1 more variable: project <chr>

We see that we have 77 registered loggers. Next, we can have a look at the current active sessions, most easily through the getActiveSessions function.

activeSessions <- getActiveSessions()  # This reads from the table loggers.logging_session. 
activeSessions
#> # A tibble: 77 x 10
#>    id        session_id logger_id deployment_id retrieval_id active colony
#>    <chr>          <int>     <int>         <int>        <int> <lgl>  <chr> 
#>  1 2bf3e97a…          1         1            NA           NA T      <NA>  
#>  2 2bf4de20…          2         2            NA           NA T      <NA>  
#>  3 2bf552c4…          3         3            NA           NA T      <NA>  
#>  4 2bf5ebd0…          4         4            NA           NA T      <NA>  
#>  5 2bf66c36…          5         5            NA           NA T      <NA>  
#>  6 2bf6d5fe…          6         6            NA           NA T      <NA>  
#>  7 2bf72cac…          7         7            NA           NA T      <NA>  
#>  8 2bf75218…          8         8            NA           NA T      <NA>  
#>  9 2bf77630…          9         9            NA           NA T      <NA>  
#> 10 2bf79994…         10        10            NA           NA T      <NA>  
#> # ... with 67 more rows, and 3 more variables: species <chr>,
#> #   year_tracked <chr>, individ_id <chr>
…
And check the new status of the number of deployed and retrieved loggers.

activeSessions <- getActiveSessions()

activeSessions %>% summarise(no_deployed = sum(!is.na(deployment_id)), no_retrieved = sum(!is.na(retrieval_id)))
#> # A tibble: 1 x 2
#>   no_deployed no_retrieved
#>         <int>        <int>
#> 1          77           57

We see that the logger_session table has been filled with data on deployments and retrievals. Data on the colony, species, and individ_id the logger was deployed on is also added to the table. The rows with retrieval data also contains data on the year tracked.

activeSessions %>% filter(!is.na(retrieval_id))
#> # A tibble: 57 x 10
#>    id        session_id logger_id deployment_id retrieval_id active colony
#>    <chr>          <int>     <int>         <int>        <int> <lgl>  <chr> 
#>  1 2bf3e97a…          1         1             1            1 T      Sklin…
#>  2 2bf4de20…          2         2             2            2 T      Sklin…
#>  3 2bf552c4…          3         3             3            3 T      Sklin…
#>  4 2bf5ebd0…          4         4             4            4 T      Sklin…
#>  5 2bf66c36…          5         5             5            5 T      Sklin…
#>  6 2bf6d5fe…          6         6             6            6 T      Sklin…
#>  7 2bf72cac…          7         7             7            7 T      Sklin…
#>  8 2bf75218…          8         8             8            8 T      Sklin…
#>  9 2bf77630…          9         9             9            9 T      Sklin…
#> 10 2bf79994…         10        10            10           10 T      Sklin…
#> # ... with 47 more rows, and 3 more variables: species <chr>,
#> #   year_tracked <chr>, individ_id <chr>

Importing shutdown information

We can now shut down the logging sessions that have been given retrieval data. We could also have shut down these logging sessions before, but we would then not be able to add deployment or retrieval data.

We use the logger_import table again to shut the logging sessions down. For all rows where shutdown_session = True, the corresponding logging sessions will be shut down. Remember that it is usually not a good idea to import startup and shutdown data at the same time, since this will just open and close the session. One way of only importing shutdown info is to blank out all the other columns in the logger import data.

Here the startup and allocation info is empty.

sampleLoggerShutdown
#> # A tibble: 57 x 22
#>    logger_serial_no logger_model producer production_year project
#>    <chr>            <chr>        <lgl>    <lgl>           <lgl>  
#>  1 Z231             c65          NA       NA              NA     
#>  2 Z236             c65          NA       NA              NA     
#>  3 Z234             c65          NA       NA              NA     
#>  4 Z232             c65          NA       NA              NA     
#>  5 Y604             f100         NA       NA              NA     
#>  6 Y612             f100         NA       NA              NA     
#>  7 Y614             f100         NA       NA              NA     
#>  8 Y595             f100         NA       NA              NA     
#>  9 Y116             c330         NA       NA              NA     
#> 10 Y099             c330         NA       NA              NA     
#> # ... with 47 more rows, and 17 more variables: starttime_gmt <lgl>,
#> #   logging_mode <lgl>, started_by <lgl>, started_where <lgl>,
#> #   days_delayed <lgl>, programmed_gmt_time <lgl>, intended_species <lgl>,
#> #   intended_location <lgl>, intended_deployer <lgl>,
#> #   data_responsible <lgl>, shutdown_session <lgl>, field_status <chr>,
#> #   downloaded_by <chr>, download_type <chr>, download_date <date>,
#> #   decomissioned <lgl>, comment <lgl>

And we only have shutdown info.

sampleLoggerShutdown %>% select(logger_serial_no, logger_model, shutdown_session:comment)
#> # A tibble: 57 x 9
#>    logger_serial_no logger_model shutdown_session field_status
#>    <chr>            <chr>        <lgl>            <chr>       
#>  1 Z231             c65          T                OK          
#>  2 Z236             c65          T                OK          
#>  3 Z234             c65          T                OK          
#>  4 Z232             c65          T                OK          
#>  5 Y604             f100         T                OK          
#>  6 Y612             f100         T                OK          
#>  7 Y614             f100         T                OK          
#>  8 Y595             f100         T                OK          
#>  9 Y116             c330         T                OK          
#> 10 Y099             c330         T                OK          
#> # ... with 47 more rows, and 5 more variables: downloaded_by <chr>,
#> #   download_type <chr>, download_date <date>, decomissioned <lgl>,
#> #   comment <lgl>
…
Looks good.

The shutdown also creates filenames associated with the session, depending on the make and model of the logger. These end up in the table loggers.file_archive.

Working with the file archive

We can now see what these shutdowns has produced in the file archive table. This table lists the expected filenames produced by the logging sessions that has been shutdown. It is up to the users to manually upload these files to the file storage location [comming functions]

We can take a look at the expected filenames through the function getFileArchive.

fileArchive <- getFileArchive()

fileArchive
#> # A tibble: 813 x 8
#>    file_id session_id ring_number euring_code year_tracked
#>      <int>      <int> <chr>       <chr>       <chr>       
#>  1     272          1 5175137     NOS         2016-2017   
#>  2     273          1 5175137     NOS         2016-2017   
#>  3     274          1 5175137     NOS         2016-2017   
#>  4     275          1 5175137     NOS         2016-2017   
#>  5     276          1 5175137     NOS         2016-2017   
#>  6     277          1 5175137     NOS         2016-2017   
#>  7     278          1 5175137     NOS         2016-2017   
#>  8     279          2 5175138     NOS         2016-2017   
#>  9     280          2 5175138     NOS         2016-2017   
#> 10     281          2 5175138     NOS         2016-2017   
#> # ... with 803 more rows, and 3 more variables: logger_serial_no <chr>,
#> #   logger_model <chr>, filename <chr>
…
